<svg width="34" height="30" viewBox="0 0 34 30" fill="none" xmlns="http://www.w3.org/2000/svg">
<path fill-rule="evenodd" clip-rule="evenodd" d="M33.6177 5.55742L27.2427 0.24492C26.926 -0.0185798 26.484 -0.07383 26.1122 0.10042C25.7382 0.272545 25.5002 0.64867 25.5002 1.06092V4.24842H23.7215C20.7699 4.24842 18.0754 5.7423 16.5135 8.24342L16.1289 8.85967L18.6343 12.8695L20.1175 10.4959C20.8995 9.24642 22.2468 8.49842 23.7215 8.49842H25.5002V11.6859C25.5002 12.0982 25.7382 12.4743 26.1122 12.6485C26.2545 12.7144 26.4097 12.7484 26.5627 12.7484C26.807 12.7484 27.0493 12.6634 27.2427 12.5019L33.6177 7.18942C33.862 6.98755 34.0002 6.68792 34.0002 6.37342C34.0002 6.05892 33.862 5.7593 33.6177 5.55742ZM33.6175 22.5574L27.2425 17.2449C26.9259 16.9793 26.4839 16.9262 26.112 17.0983C25.738 17.2747 25.5 17.6487 25.5 18.0609V21.2484H23.7214C22.2466 21.2484 20.8994 20.5004 20.1174 19.2509L13.2366 8.24341C11.6748 5.74229 8.98025 4.24841 6.02862 4.24841H0V8.49841H6.02862C7.50337 8.49841 8.85063 9.24641 9.63262 10.4959L16.5134 21.5034C18.0774 24.0045 20.7719 25.4984 23.7214 25.4984H25.5V28.6859C25.5 29.0982 25.738 29.4722 26.112 29.6485C26.2544 29.7144 26.4095 29.7484 26.5625 29.7484C26.8069 29.7484 27.0491 29.6655 27.2425 29.5019L33.6175 24.1894C33.8619 23.9875 34 23.6879 34 23.3734C34 23.0589 33.8619 22.7593 33.6175 22.5574ZM9.63475 19.2509L11.1159 16.8773L13.6212 20.8872L13.2366 21.5034C11.6726 24.0045 8.97812 25.4984 6.02862 25.4984H0V21.2484H6.02862C7.50337 21.2484 8.85275 20.5004 9.63475 19.2509Z" fill="white"/>
</svg>
